2020-05-24 23:50:55
train_file_name = ./data/day_1.csv
learning_rate = 0.05, alpha = 5, n_epoch = 1, emb_dize = 10
test_auc = 0.7646
test_rmse = 0.435
test_loss = 0.55904
train_loss_list =[31.3889, 53.5935, 39.2071, 41.1374, 26.4601, 59.73, 34.8677, 40.2351, 48.4664, 40.8735, 44.6124, 55.107, 52.6145, 54.3725, 34.9828, 47.035, 47.0661, 38.1202, 48.8321, 35.266, 45.5788, 43.655, 34.9231, 36.3053, 51.2874, 47.5223, 55.4071, 37.3756, 53.2813, 42.7248, 40.301, 31.9429, 31.1527, 41.1879, 50.4188, 65.9712, 36.9325, 41.8311, 38.7568, 64.593, 46.0406, 59.9244, 34.4365, 62.5238, 52.1119, 51.5272, 38.436, 55.491, 27.3244, 72.7337, 39.3949, 67.1377, 59.5067, 29.4426, 41.3442, 47.5284, 54.369, 67.4329, 47.4476, 49.0476, 38.5192, 43.1984, 52.4315, 46.3864, 39.8336, 40.3319, 56.3805, 44.6673, 49.6055, 37.6812]
val_auc_list =[0.6561, 0.684, 0.6965, 0.7085, 0.7128, 0.7197, 0.7224, 0.7264, 0.729, 0.7292, 0.7293, 0.7336, 0.7355, 0.7369, 0.7378, 0.7375, 0.7405, 0.7403, 0.7428, 0.744, 0.7445, 0.7446, 0.7466, 0.7487, 0.7496, 0.7506, 0.7514, 0.753, 0.7521, 0.7518, 0.7523, 0.7523, 0.7542, 0.7534, 0.7544, 0.7563, 0.7562, 0.7564, 0.7568, 0.7559, 0.757, 0.7572, 0.7581, 0.7578, 0.7591, 0.7583, 0.7579, 0.7575, 0.7592, 0.7588, 0.7587, 0.7591, 0.7585, 0.7579, 0.7586, 0.7597, 0.7596, 0.7594, 0.7594, 0.7612, 0.7608, 0.7615, 0.7611, 0.7622, 0.7627, 0.7623, 0.7626, 0.7636, 0.7639, 0.7638]
--------------------------------------------------
