2020-05-23 17:21:45
train_file_name = ./data/day_1.csv
learning_rate = 0.05, alpha = 5, n_epoch = 1, emb_dize = 10
test_auc = 0.7639
test_rmse = 0.4365
test_loss = 0.56224
train_loss_list =[1.036, 1.4226, 1.159, 1.1114, 0.9962, 1.3575, 1.1417, 1.0188, 1.2197, 0.9398, 1.1654, 1.1901, 1.1348, 1.1681, 1.1772, 1.1663, 1.2894, 0.8093, 1.279, 0.8528, 1.0558, 1.2804, 0.8701, 0.7914, 1.0758, 1.1288, 0.985, 0.9468, 1.0901, 0.8829, 0.9632, 0.9062, 0.7671, 1.1007, 1.4375, 1.3925, 1.0169, 0.9613, 0.9549, 1.3844, 1.163, 1.3975, 0.8957, 1.5184, 1.2435, 1.4695, 1.326, 1.4012, 0.8258, 1.4715, 0.9158, 1.5057, 1.4605, 0.8048, 1.0113, 1.2409, 1.3589, 1.5349, 1.2802, 1.106, 0.9174, 0.8539, 1.3994, 1.1327, 1.0019, 1.021, 1.17, 1.2527, 1.0166, 0.8084]
val_auc_list =[0.6421, 0.6591, 0.666, 0.6816, 0.6865, 0.695, 0.7017, 0.7128, 0.719, 0.7203, 0.723, 0.7277, 0.7313, 0.7328, 0.735, 0.7339, 0.7371, 0.7371, 0.7396, 0.7422, 0.7428, 0.7432, 0.7431, 0.7472, 0.7454, 0.7471, 0.7489, 0.7506, 0.7509, 0.7504, 0.7504, 0.7516, 0.7522, 0.7519, 0.752, 0.7535, 0.7539, 0.7534, 0.754, 0.7538, 0.7551, 0.7553, 0.7553, 0.7548, 0.7561, 0.7552, 0.7544, 0.7555, 0.7571, 0.7568, 0.7566, 0.7555, 0.7559, 0.7558, 0.7576, 0.7576, 0.7576, 0.7561, 0.7571, 0.7589, 0.7587, 0.759, 0.7596, 0.7582, 0.7602, 0.7601, 0.7593, 0.7615, 0.762, 0.7622]
--------------------------------------------------
